{
    "characters" : [
        {
            "id" : 0,
            "character" : "王",
            "reading" : "wang2",
            "meaning" : "popularne nazwisko",
            "samples_number" : 5
        },
        {
            "id" : 1,
            "character" : "我",
            "reading" : "wo3",
            "meaning" : "ja",
            "samples_number" : 5
        },
        {
            "id" : 2,
            "character" : "叫",
            "reading" : "jiao4",
            "meaning" : "mieć na imię",
            "samples_number" : 5
        },
        {
            "id" : 3,
            "character" : "是",
            "reading" : "shi4",
            "meaning" : "być",
            "samples_number" : 5
        },
        {
            "id" : 4,
            "character" : "人",
            "reading" : "ren2",
            "meaning" : "człowiek",
            "samples_number" : 5
        },
        {
            "id" : 5,
            "character" : "不",
            "reading" : "bu2",
            "meaning" : "nie",
            "samples_number" : 5
        },
        {
            "id" : 6,
            "character" : "你",
            "reading" : "ni3",
            "meaning" : "ty, pan, pani",
            "samples_number" : 5
        },
        {
            "id" : 7,
            "character" : "久",
            "reading" : "jiu3",
            "meaning" : "długo",
            "samples_number" : 5
        },
        {
            "id" : 8,
            "character" : "也",
            "reading" : "ye3",
            "meaning" : "także",
            "samples_number" : 5
        },
        {
            "id" : 9,
            "character" : "去",
            "reading" : "qu4",
            "meaning" : "iść, jechać",
            "samples_number" : 5
        },
        {
            "id" : 10,
            "character" : "大",
            "reading" : "da4",
            "meaning" : "duży",
            "samples_number" : 5
        },
        {
            "id" : 11,
            "character" : "丑",
            "reading" : "chou3",
            "meaning" : "brzydki",
            "samples_number" : 5
        },
        {
            "id" : 12,
            "character" : "山",
            "reading" : "shan1",
            "meaning" : "góra",
            "samples_number" : 5
        },
        {
            "id" : 13,
            "character" : "天",
            "reading" : "tian1",
            "meaning" : "niebo",
            "samples_number" : 5
        },
        {
            "id" : 14,
            "character" : "下",
            "reading" : "xia4",
            "meaning" : "pod",
            "samples_number" : 5
        },
        {
            "id" : 15,
            "character" : "上",
            "reading" : "shang4",
            "meaning" : "nad",
            "samples_number" : 5
        }
    ]
}